%YAML 1.1
%TAG !u! tag:unity3d.com,2011:
--- !u!114 &11400000
MonoBehaviour:
  m_ObjectHideFlags: 0
  m_CorrespondingSourceObject: {fileID: 0}
  m_PrefabInstance: {fileID: 0}
  m_PrefabAsset: {fileID: 0}
  m_GameObject: {fileID: 0}
  m_Enabled: 1
  m_EditorHideFlags: 0
  m_Script: {fileID: 11500000, guid: ea05b6618260c48468f1a8114a1d78c9, type: 3}
  m_Name: 20_alexander
  m_EditorClassIdentifier: 
  avatarId: 20
  sprite: {fileID: 21300000, guid: be4a84308c5a91a4e93dfd15fd915398, type: 3}
  avatarAudio: {fileID: 8300000, guid: 126c830a41cdceb44aa276a6e984bfb1, type: 3}
  abilityName: Voodoo
  abilityDescription: "Entscheide bis zu 2x wer wem wie viele Coins(max. 5) abgibt.
    Du kannst dich nicht selber als Ziel w\xE4hlen."
  abilityImage: {fileID: 21300000, guid: 8b1847879a6aad04c85fe0ac1c33f169, type: 3}
