%YAML 1.1
%TAG !u! tag:unity3d.com,2011:
--- !u!114 &11400000
MonoBehaviour:
  m_ObjectHideFlags: 0
  m_CorrespondingSourceObject: {fileID: 0}
  m_PrefabInstance: {fileID: 0}
  m_PrefabAsset: {fileID: 0}
  m_GameObject: {fileID: 0}
  m_Enabled: 1
  m_EditorHideFlags: 0
  m_Script: {fileID: 11500000, guid: ea05b6618260c48468f1a8114a1d78c9, type: 3}
  m_Name: 5_HaraldKrull
  m_EditorClassIdentifier: 
  avatarId: 5
  sprite: {fileID: 21300000, guid: 9e5e2ae0c6f411b4587a5c4776ee3449, type: 3}
  avatarAudio: {fileID: 8300000, guid: 1c85431a820354a4b8f2a56fa827fd67, type: 3}
  abilityName: Die sind mir Heilig
  abilityDescription: 'Je nach Anzahl der Frauen im Spiel bekommst du am Anfang jeder
    ungeraden Kategorie: 1 Frau = 1, 2 Frauen = 2, 3 Frauen = 3, > 3 Frauen = 6'
  abilityImage: {fileID: 21300000, guid: 17099569889f7814ab1e9eecf94e5685, type: 3}
