%YAML 1.1
%TAG !u! tag:unity3d.com,2011:
--- !u!114 &11400000
MonoBehaviour:
  m_ObjectHideFlags: 0
  m_CorrespondingSourceObject: {fileID: 0}
  m_PrefabInstance: {fileID: 0}
  m_PrefabAsset: {fileID: 0}
  m_GameObject: {fileID: 0}
  m_Enabled: 1
  m_EditorHideFlags: 0
  m_Script: {fileID: 11500000, guid: ea05b6618260c48468f1a8114a1d78c9, type: 3}
  m_Name: 8_Mogli
  m_EditorClassIdentifier: 
  avatarId: 8
  sprite: {fileID: 21300000, guid: 49a42ef8a1bc34847b8aee0b9efd58cc, type: 3}
  avatarAudio: {fileID: 8300000, guid: 07aa7b4447a07dd4c99e608f497dbb17, type: 3}
  abilityName: Self Destruction
  abilityDescription: Verliere am Anfang jeder ungeraden Kategorie 3.
  abilityImage: {fileID: 21300000, guid: 17099569889f7814ab1e9eecf94e5685, type: 3}
