%YAML 1.1
%TAG !u! tag:unity3d.com,2011:
--- !u!114 &11400000
MonoBehaviour:
  m_ObjectHideFlags: 0
  m_CorrespondingSourceObject: {fileID: 0}
  m_PrefabInstance: {fileID: 0}
  m_PrefabAsset: {fileID: 0}
  m_GameObject: {fileID: 0}
  m_Enabled: 1
  m_EditorHideFlags: 0
  m_Script: {fileID: 11500000, guid: ea05b6618260c48468f1a8114a1d78c9, type: 3}
  m_Name: 9_Marco
  m_EditorClassIdentifier: 
  avatarId: 9
  sprite: {fileID: 21300000, guid: ac42b60ce0bbcf048b3357ae764a98e0, type: 3}
  avatarAudio: {fileID: 8300000, guid: 77540c337714a2e469242226a67a1b13, type: 3}
  abilityName: Teilnahmslosigkeit
  abilityDescription: Du darfst mit niemandem Handel. Kann einmal einen Angriff blocken.
  abilityImage: {fileID: 21300000, guid: 8b1847879a6aad04c85fe0ac1c33f169, type: 3}
